su_number, ass1, ass2, ass3, ass4, ass5, ass6, ass7, ass8, test1, test2, test3, test4
,50,50,50,50,50,50,50,50,60,75,40,80
12345678,31,40,32,35,26,,39,30,42,12,33,79
20941390,27,12,30,29,10,,,,12,45,,80
